{
  "adminPageExample": {
    "title": "Admin Page Example",
    "menu_title": "Example",
    "capability": "administrator",
    "menu_slug": "admin_page_example",
    "callback": "exmple",
    "settingsApiConfig": {
      "add_settings_section": {
        "slug": "eg_setting_section",
        "title": "Example settings section in reading",
        "add_settings_field": {
          "slug": "eg_setting_section",
          "title": "Example settings section in reading",
          "formType": "input",
          "placeholder": "Example Placeholder",
          "class": "exampleClass",
          "style": {
            "border": "1px solid red"
          },
          "data": "example-fooo"
        }
      }
    }
  }
}